module github.com/HazCod/gosecurity

require (
	github.com/pkg/errors v0.8.0
	golang.org/x/crypto v0.0.0-20181203042331-505ab145d0a9
	golang.org/x/sys v0.0.0-20181228144115-9a3f9b0469bb // indirect
)
